{ 
	"u1":{"user" : "John" , "age" :22 ,"Country": "United Statess"},
	"u2":{"user" : "Will" , "age" :27 ,"Country": "United Kingdom"},
	"u3":{"user" : "Abiel" , "age" :19 ,"Country": "United Mexico"}
}
